// Jest Snapshot v1, https://goo.gl/fbAQLP

exports[`NewTool Form UI Test Snapshot should match 1`] = `
<form
  onSubmit={[Function]}
>
  <div
    className="form-group"
  >
    <label
      className=""
      htmlFor="toolName"
    >
      Tool Name
    </label>
    <input
      className="form-control"
      id="toolName"
      name="title"
      onBlur={[Function]}
      onChange={[Function]}
      placeholder="Ex: hotel"
      type="text"
      value=""
    />
    <p
      className="sc-bwzfXH hcDcIU"
    >
       
       
    </p>
  </div>
  <div
    className="form-group"
  >
    <label
      className=""
      htmlFor="toolLink"
    >
      Tool Link
    </label>
    <input
      className="form-control"
      id="toolLink"
      name="link"
      onBlur={[Function]}
      onChange={[Function]}
      placeholder="Ex: https://github.com/typicode/hotel"
      type="text"
      value=""
    />
    <p
      className="sc-bwzfXH hcDcIU"
    >
       
       
    </p>
  </div>
  <div
    className="form-group"
  >
    <label
      className=""
      htmlFor="toolDescription"
    >
      Tool Description
    </label>
    <input
      className="form-control"
      id="toolDescription"
      name="description"
      onBlur={[Function]}
      onChange={[Function]}
      placeholder="Ex:This is a great description"
      type="text"
      value=""
    />
    <p
      className="sc-bwzfXH hcDcIU"
    />
  </div>
  <div
    className="form-group"
  >
    <label
      className=""
      htmlFor="toolTags"
    >
      Tags 
      <small>
        split in commas
      </small>
    </label>
    <input
      className="form-control"
      id="toolTags"
      name="tags"
      onBlur={[Function]}
      onChange={[Function]}
      placeholder="node, organization, webapps"
      type="text"
    />
  </div>
  <div
    className="sc-bdVaJa kLBbYB"
  >
    <button
      aria-label={null}
      className="btn btn-secondary"
      onClick={[Function]}
    >
      <span>
        Add tool
      </span>
    </button>
  </div>
</form>
`;
